^D:\WORKSPACE\AVANSPROJECTS\CPP2\TEMPLATES\TEMPLATES\ARRAY3D.CPP|D:\WORKSPACE\AVANSPROJECTS\CPP2\TEMPLATES\TEMPLATES\MAIN.CPP
D:\WORKSPACE\AVANSPROJECTS\CPP2\TEMPLATES\TEMPLATES\DEBUG\VC140.PDB
D:\WORKSPACE\AVANSPROJECTS\CPP2\TEMPLATES\TEMPLATES\DEBUG\VC140.IDB
D:\WORKSPACE\AVANSPROJECTS\CPP2\TEMPLATES\TEMPLATES\DEBUG\MAIN.OBJ
^D:\WORKSPACE\AVANSPROJECTS\CPP2\TEMPLATES\TEMPLATES\ARRAY3D.CPP
D:\WORKSPACE\AVANSPROJECTS\CPP2\TEMPLATES\TEMPLATES\DEBUG\VC140.PDB
D:\WORKSPACE\AVANSPROJECTS\CPP2\TEMPLATES\TEMPLATES\DEBUG\VC140.IDB
^D:\WORKSPACE\AVANSPROJECTS\CPP2\TEMPLATES\TEMPLATES\MAIN.CPP
D:\WORKSPACE\AVANSPROJECTS\CPP2\TEMPLATES\TEMPLATES\DEBUG\VC140.PDB
D:\WORKSPACE\AVANSPROJECTS\CPP2\TEMPLATES\TEMPLATES\DEBUG\VC140.IDB
