^D:\WORKSPACE\AVANSPROJECTS\CPP1\PROJECT1\PROJECT1\ARRAY3D.CPP
/c /I"C:\PROGRAM FILES (X86)\VISUAL LEAK DETECTOR\INCLUDE" /ZI /nologo /W3 /WX- /sdl /Od /D _MBCS /Gm /EHsc /RTC1 /MDd /GS /fp:precise /Zc:wchar_t /Zc:forScope /Zc:inline /Fo"X64\DEBUG\\" /Fd"X64\DEBUG\VC140.PDB" /Gd /TP D:\WORKSPACE\AVANSPROJECTS\CPP1\PROJECT1\PROJECT1\ARRAY3D.CPP
^D:\WORKSPACE\AVANSPROJECTS\CPP1\PROJECT1\PROJECT1\MAIN.CPP
/c /I"C:\PROGRAM FILES (X86)\VISUAL LEAK DETECTOR\INCLUDE" /ZI /nologo /W3 /WX- /sdl /Od /D _MBCS /Gm /EHsc /RTC1 /MDd /GS /fp:precise /Zc:wchar_t /Zc:forScope /Zc:inline /Fo"X64\DEBUG\\" /Fd"X64\DEBUG\VC140.PDB" /Gd /TP D:\WORKSPACE\AVANSPROJECTS\CPP1\PROJECT1\PROJECT1\MAIN.CPP
