^B:\GOOGLE DRIVE\SCHOOL\BLOK 13\PROJECT\IIIN-SWAPRJ13G\GAME\STEALTHGAME\STEALTHGAME\DEBUG\MAIN.OBJ
/OUT:"B:\GOOGLE DRIVE\SCHOOL\BLOK 13\PROJECT\IIIN-SWAPRJ13G\GAME\STEALTHGAME\DEBUG\STEALTHGAME.EXE" /INCREMENTAL /NOLOGO SDL2.LIB SDL2MAIN.LIB SDL2_IMAGE.LIB SDL2_TTF.LIB SDL2_MIXER.LIB KERNEL32.LIB USER32.LIB GDI32.LIB WINSPOOL.LIB COMDLG32.LIB ADVAPI32.LIB SHELL32.LIB OLE32.LIB OLEAUT32.LIB UUID.LIB ODBC32.LIB ODBCCP32.LIB /MANIFEST /MANIFESTUAC:"level='asInvoker' uiAccess='false'" /manifest:embed /Debug /PDB:"B:\GOOGLE DRIVE\SCHOOL\BLOK 13\PROJECT\IIIN-SWAPRJ13G\GAME\STEALTHGAME\DEBUG\STEALTHGAME.PDB" /SUBSYSTEM:CONSOLE /TLBID:1 /DYNAMICBASE /NXCOMPAT /IMPLIB:"B:\GOOGLE DRIVE\SCHOOL\BLOK 13\PROJECT\IIIN-SWAPRJ13G\GAME\STEALTHGAME\DEBUG\STEALTHGAME.LIB" /MACHINE:X86 DEBUG\MAIN.OBJ
^D:\WORKSPACE\IIIN-SWAPRJ13G\GAME\STEALTHGAME\STEALTHGAME\DEBUG\DEMOCONTROLLER.OBJ|D:\WORKSPACE\IIIN-SWAPRJ13G\GAME\STEALTHGAME\STEALTHGAME\DEBUG\DEMOFRAME.OBJ|D:\WORKSPACE\IIIN-SWAPRJ13G\GAME\STEALTHGAME\STEALTHGAME\DEBUG\DEMOMODEL.OBJ|D:\WORKSPACE\IIIN-SWAPRJ13G\GAME\STEALTHGAME\STEALTHGAME\DEBUG\DEMOVIEW.OBJ|D:\WORKSPACE\IIIN-SWAPRJ13G\GAME\STEALTHGAME\STEALTHGAME\DEBUG\MAIN.OBJ|D:\WORKSPACE\IIIN-SWAPRJ13G\GAME\STEALTHGAME\STEALTHGAME\DEBUG\MAINCONTROLLER.OBJ|D:\WORKSPACE\IIIN-SWAPRJ13G\GAME\STEALTHGAME\STEALTHGAME\DEBUG\MAINLOOP.OBJ|D:\WORKSPACE\IIIN-SWAPRJ13G\GAME\STEALTHGAME\STEALTHGAME\DEBUG\MAINWINDOW.OBJ
/OUT:"D:\WORKSPACE\IIIN-SWAPRJ13G\GAME\STEALTHGAME\DEBUG\STEALTHGAME.EXE" /INCREMENTAL /NOLOGO SDL2.LIB SDL2MAIN.LIB SDL2_IMAGE.LIB SDL2_TTF.LIB SDL2_MIXER.LIB KERNEL32.LIB USER32.LIB GDI32.LIB WINSPOOL.LIB COMDLG32.LIB ADVAPI32.LIB SHELL32.LIB OLE32.LIB OLEAUT32.LIB UUID.LIB ODBC32.LIB ODBCCP32.LIB /MANIFEST /MANIFESTUAC:"level='asInvoker' uiAccess='false'" /manifest:embed /Debug /PDB:"D:\WORKSPACE\IIIN-SWAPRJ13G\GAME\STEALTHGAME\DEBUG\STEALTHGAME.PDB" /SUBSYSTEM:CONSOLE /TLBID:1 /DYNAMICBASE /NXCOMPAT /IMPLIB:"D:\WORKSPACE\IIIN-SWAPRJ13G\GAME\STEALTHGAME\DEBUG\STEALTHGAME.LIB" /MACHINE:X86 DEBUG\DEMOCONTROLLER.OBJDEBUG\DEMOFRAME.OBJDEBUG\DEMOMODEL.OBJDEBUG\DEMOVIEW.OBJDEBUG\MAIN.OBJDEBUG\MAINCONTROLLER.OBJDEBUG\MAINLOOP.OBJDEBUG\MAINWINDOW.OBJ
^B:\GOOGLE DRIVE\SCHOOL\BLOK 13\PROJECT\IIIN-SWAPRJ13G\GAME\STEALTHGAME\STEALTHGAME\DEBUG\DEMOCONTROLLER.OBJ|B:\GOOGLE DRIVE\SCHOOL\BLOK 13\PROJECT\IIIN-SWAPRJ13G\GAME\STEALTHGAME\STEALTHGAME\DEBUG\DEMOFRAME.OBJ|B:\GOOGLE DRIVE\SCHOOL\BLOK 13\PROJECT\IIIN-SWAPRJ13G\GAME\STEALTHGAME\STEALTHGAME\DEBUG\DEMOMODEL.OBJ|B:\GOOGLE DRIVE\SCHOOL\BLOK 13\PROJECT\IIIN-SWAPRJ13G\GAME\STEALTHGAME\STEALTHGAME\DEBUG\DEMOVIEW.OBJ|B:\GOOGLE DRIVE\SCHOOL\BLOK 13\PROJECT\IIIN-SWAPRJ13G\GAME\STEALTHGAME\STEALTHGAME\DEBUG\IMAGETEXTURE.OBJ|B:\GOOGLE DRIVE\SCHOOL\BLOK 13\PROJECT\IIIN-SWAPRJ13G\GAME\STEALTHGAME\STEALTHGAME\DEBUG\MAIN.OBJ|B:\GOOGLE DRIVE\SCHOOL\BLOK 13\PROJECT\IIIN-SWAPRJ13G\GAME\STEALTHGAME\STEALTHGAME\DEBUG\MAINCONTROLLER.OBJ|B:\GOOGLE DRIVE\SCHOOL\BLOK 13\PROJECT\IIIN-SWAPRJ13G\GAME\STEALTHGAME\STEALTHGAME\DEBUG\MAINLOOP.OBJ|B:\GOOGLE DRIVE\SCHOOL\BLOK 13\PROJECT\IIIN-SWAPRJ13G\GAME\STEALTHGAME\STEALTHGAME\DEBUG\MAINWINDOW.OBJ
/OUT:"B:\GOOGLE DRIVE\SCHOOL\BLOK 13\PROJECT\IIIN-SWAPRJ13G\GAME\STEALTHGAME\DEBUG\STEALTHGAME.EXE" /INCREMENTAL /NOLOGO SDL2.LIB SDL2MAIN.LIB SDL2_IMAGE.LIB SDL2_TTF.LIB SDL2_MIXER.LIB KERNEL32.LIB USER32.LIB GDI32.LIB WINSPOOL.LIB COMDLG32.LIB ADVAPI32.LIB SHELL32.LIB OLE32.LIB OLEAUT32.LIB UUID.LIB ODBC32.LIB ODBCCP32.LIB /MANIFEST /MANIFESTUAC:"level='asInvoker' uiAccess='false'" /manifest:embed /Debug /PDB:"B:\GOOGLE DRIVE\SCHOOL\BLOK 13\PROJECT\IIIN-SWAPRJ13G\GAME\STEALTHGAME\DEBUG\STEALTHGAME.PDB" /SUBSYSTEM:CONSOLE /TLBID:1 /DYNAMICBASE /NXCOMPAT /IMPLIB:"B:\GOOGLE DRIVE\SCHOOL\BLOK 13\PROJECT\IIIN-SWAPRJ13G\GAME\STEALTHGAME\DEBUG\STEALTHGAME.LIB" /MACHINE:X86 DEBUG\DEMOCONTROLLER.OBJDEBUG\DEMOFRAME.OBJDEBUG\DEMOMODEL.OBJDEBUG\DEMOVIEW.OBJDEBUG\MAIN.OBJDEBUG\MAINCONTROLLER.OBJDEBUG\MAINLOOP.OBJDEBUG\MAINWINDOW.OBJDEBUG\IMAGETEXTURE.OBJ
^D:\WORKSPACE\IIIN-SWAPRJ13G\GAME\STEALTHGAME\STEALTHGAME\DEBUG\DEMOCONTROLLER.OBJ|D:\WORKSPACE\IIIN-SWAPRJ13G\GAME\STEALTHGAME\STEALTHGAME\DEBUG\DEMOFRAME.OBJ|D:\WORKSPACE\IIIN-SWAPRJ13G\GAME\STEALTHGAME\STEALTHGAME\DEBUG\DEMOMODEL.OBJ|D:\WORKSPACE\IIIN-SWAPRJ13G\GAME\STEALTHGAME\STEALTHGAME\DEBUG\DEMOVIEW.OBJ|D:\WORKSPACE\IIIN-SWAPRJ13G\GAME\STEALTHGAME\STEALTHGAME\DEBUG\IMAGETEXTURE.OBJ|D:\WORKSPACE\IIIN-SWAPRJ13G\GAME\STEALTHGAME\STEALTHGAME\DEBUG\MAIN.OBJ|D:\WORKSPACE\IIIN-SWAPRJ13G\GAME\STEALTHGAME\STEALTHGAME\DEBUG\MAINCONTROLLER.OBJ|D:\WORKSPACE\IIIN-SWAPRJ13G\GAME\STEALTHGAME\STEALTHGAME\DEBUG\MAINLOOP.OBJ|D:\WORKSPACE\IIIN-SWAPRJ13G\GAME\STEALTHGAME\STEALTHGAME\DEBUG\MAINWINDOW.OBJ
/OUT:"D:\WORKSPACE\IIIN-SWAPRJ13G\GAME\STEALTHGAME\DEBUG\STEALTHGAME.EXE" /INCREMENTAL /NOLOGO SDL2.LIB SDL2MAIN.LIB SDL2_IMAGE.LIB SDL2_TTF.LIB SDL2_MIXER.LIB KERNEL32.LIB USER32.LIB GDI32.LIB WINSPOOL.LIB COMDLG32.LIB ADVAPI32.LIB SHELL32.LIB OLE32.LIB OLEAUT32.LIB UUID.LIB ODBC32.LIB ODBCCP32.LIB /MANIFEST /MANIFESTUAC:"level='asInvoker' uiAccess='false'" /manifest:embed /Debug /PDB:"D:\WORKSPACE\IIIN-SWAPRJ13G\GAME\STEALTHGAME\DEBUG\STEALTHGAME.PDB" /SUBSYSTEM:CONSOLE /TLBID:1 /DYNAMICBASE /NXCOMPAT /IMPLIB:"D:\WORKSPACE\IIIN-SWAPRJ13G\GAME\STEALTHGAME\DEBUG\STEALTHGAME.LIB" /MACHINE:X86 DEBUG\DEMOCONTROLLER.OBJDEBUG\DEMOFRAME.OBJDEBUG\DEMOMODEL.OBJDEBUG\DEMOVIEW.OBJDEBUG\MAIN.OBJDEBUG\MAINCONTROLLER.OBJDEBUG\MAINLOOP.OBJDEBUG\MAINWINDOW.OBJDEBUG\IMAGETEXTURE.OBJ
^C:\USERS\SANDER\DOCUMENTS\WORKSPACE\IIIN-SWAPRJ13G\GAME\STEALTHGAME\STEALTHGAME\DEBUG\DEMOCONTROLLER.OBJ|C:\USERS\SANDER\DOCUMENTS\WORKSPACE\IIIN-SWAPRJ13G\GAME\STEALTHGAME\STEALTHGAME\DEBUG\DEMOFRAME.OBJ|C:\USERS\SANDER\DOCUMENTS\WORKSPACE\IIIN-SWAPRJ13G\GAME\STEALTHGAME\STEALTHGAME\DEBUG\DEMOMODEL.OBJ|C:\USERS\SANDER\DOCUMENTS\WORKSPACE\IIIN-SWAPRJ13G\GAME\STEALTHGAME\STEALTHGAME\DEBUG\DEMOVIEW.OBJ|C:\USERS\SANDER\DOCUMENTS\WORKSPACE\IIIN-SWAPRJ13G\GAME\STEALTHGAME\STEALTHGAME\DEBUG\IMAGETEXTURE.OBJ|C:\USERS\SANDER\DOCUMENTS\WORKSPACE\IIIN-SWAPRJ13G\GAME\STEALTHGAME\STEALTHGAME\DEBUG\MAIN.OBJ|C:\USERS\SANDER\DOCUMENTS\WORKSPACE\IIIN-SWAPRJ13G\GAME\STEALTHGAME\STEALTHGAME\DEBUG\MAINCONTROLLER.OBJ|C:\USERS\SANDER\DOCUMENTS\WORKSPACE\IIIN-SWAPRJ13G\GAME\STEALTHGAME\STEALTHGAME\DEBUG\MAINLOOP.OBJ|C:\USERS\SANDER\DOCUMENTS\WORKSPACE\IIIN-SWAPRJ13G\GAME\STEALTHGAME\STEALTHGAME\DEBUG\MAINWINDOW.OBJ
/OUT:"C:\USERS\SANDER\DOCUMENTS\WORKSPACE\IIIN-SWAPRJ13G\GAME\STEALTHGAME\DEBUG\STEALTHGAME.EXE" /INCREMENTAL /NOLOGO SDL2.LIB SDL2MAIN.LIB SDL2_IMAGE.LIB SDL2_TTF.LIB SDL2_MIXER.LIB KERNEL32.LIB USER32.LIB GDI32.LIB WINSPOOL.LIB COMDLG32.LIB ADVAPI32.LIB SHELL32.LIB OLE32.LIB OLEAUT32.LIB UUID.LIB ODBC32.LIB ODBCCP32.LIB /MANIFEST /MANIFESTUAC:"level='asInvoker' uiAccess='false'" /manifest:embed /Debug /PDB:"C:\USERS\SANDER\DOCUMENTS\WORKSPACE\IIIN-SWAPRJ13G\GAME\STEALTHGAME\DEBUG\STEALTHGAME.PDB" /SUBSYSTEM:CONSOLE /TLBID:1 /DYNAMICBASE /NXCOMPAT /IMPLIB:"C:\USERS\SANDER\DOCUMENTS\WORKSPACE\IIIN-SWAPRJ13G\GAME\STEALTHGAME\DEBUG\STEALTHGAME.LIB" /MACHINE:X86 DEBUG\DEMOCONTROLLER.OBJDEBUG\DEMOFRAME.OBJDEBUG\DEMOMODEL.OBJDEBUG\DEMOVIEW.OBJDEBUG\MAIN.OBJDEBUG\MAINCONTROLLER.OBJDEBUG\MAINLOOP.OBJDEBUG\MAINWINDOW.OBJDEBUG\IMAGETEXTURE.OBJ
^C:\USERS\SANDER\DOCUMENTS\WORKSPACE\AVANSPROJECTS\SWA13\STEALTHGAME\STEALTHGAME\DEBUG\DEMOCONTROLLER.OBJ|C:\USERS\SANDER\DOCUMENTS\WORKSPACE\AVANSPROJECTS\SWA13\STEALTHGAME\STEALTHGAME\DEBUG\DEMOFRAME.OBJ|C:\USERS\SANDER\DOCUMENTS\WORKSPACE\AVANSPROJECTS\SWA13\STEALTHGAME\STEALTHGAME\DEBUG\DEMOMODEL.OBJ|C:\USERS\SANDER\DOCUMENTS\WORKSPACE\AVANSPROJECTS\SWA13\STEALTHGAME\STEALTHGAME\DEBUG\DEMOVIEW.OBJ|C:\USERS\SANDER\DOCUMENTS\WORKSPACE\AVANSPROJECTS\SWA13\STEALTHGAME\STEALTHGAME\DEBUG\IMAGETEXTURE.OBJ|C:\USERS\SANDER\DOCUMENTS\WORKSPACE\AVANSPROJECTS\SWA13\STEALTHGAME\STEALTHGAME\DEBUG\LEVEL.OBJ|C:\USERS\SANDER\DOCUMENTS\WORKSPACE\AVANSPROJECTS\SWA13\STEALTHGAME\STEALTHGAME\DEBUG\MAIN.OBJ|C:\USERS\SANDER\DOCUMENTS\WORKSPACE\AVANSPROJECTS\SWA13\STEALTHGAME\STEALTHGAME\DEBUG\MAINCONTROLLER.OBJ|C:\USERS\SANDER\DOCUMENTS\WORKSPACE\AVANSPROJECTS\SWA13\STEALTHGAME\STEALTHGAME\DEBUG\MAINLOOP.OBJ|C:\USERS\SANDER\DOCUMENTS\WORKSPACE\AVANSPROJECTS\SWA13\STEALTHGAME\STEALTHGAME\DEBUG\MAINWINDOW.OBJ|C:\USERS\SANDER\DOCUMENTS\WORKSPACE\AVANSPROJECTS\SWA13\STEALTHGAME\STEALTHGAME\DEBUG\MAP.OBJ|C:\USERS\SANDER\DOCUMENTS\WORKSPACE\AVANSPROJECTS\SWA13\STEALTHGAME\STEALTHGAME\DEBUG\STATE.OBJ|C:\USERS\SANDER\DOCUMENTS\WORKSPACE\AVANSPROJECTS\SWA13\STEALTHGAME\STEALTHGAME\DEBUG\TILE.OBJ
/OUT:"C:\USERS\SANDER\DOCUMENTS\WORKSPACE\AVANSPROJECTS\SWA13\STEALTHGAME\DEBUG\STEALTHGAME.EXE" /INCREMENTAL /NOLOGO SDL2.LIB SDL2MAIN.LIB SDL2_IMAGE.LIB SDL2_TTF.LIB SDL2_MIXER.LIB KERNEL32.LIB USER32.LIB GDI32.LIB WINSPOOL.LIB COMDLG32.LIB ADVAPI32.LIB SHELL32.LIB OLE32.LIB OLEAUT32.LIB UUID.LIB ODBC32.LIB ODBCCP32.LIB /MANIFEST /MANIFESTUAC:"level='asInvoker' uiAccess='false'" /manifest:embed /Debug /PDB:"C:\USERS\SANDER\DOCUMENTS\WORKSPACE\AVANSPROJECTS\SWA13\STEALTHGAME\DEBUG\STEALTHGAME.PDB" /SUBSYSTEM:CONSOLE /TLBID:1 /DYNAMICBASE /NXCOMPAT /IMPLIB:"C:\USERS\SANDER\DOCUMENTS\WORKSPACE\AVANSPROJECTS\SWA13\STEALTHGAME\DEBUG\STEALTHGAME.LIB" /MACHINE:X86 DEBUG\MAP.OBJDEBUG\STATE.OBJDEBUG\TILE.OBJDEBUG\LEVEL.OBJDEBUG\DEMOCONTROLLER.OBJDEBUG\DEMOFRAME.OBJDEBUG\DEMOMODEL.OBJDEBUG\DEMOVIEW.OBJDEBUG\MAIN.OBJDEBUG\MAINCONTROLLER.OBJDEBUG\MAINLOOP.OBJDEBUG\MAINWINDOW.OBJDEBUG\IMAGETEXTURE.OBJ
